{
  "images" : [
    {
      "idiom" : "universal",
      "scale" : "1x",
      "filename" : "IntroSci.pdf"
    },
    {
      "idiom" : "universal",
      "scale" : "2x",
      "filename" : "IntroSci@2x.pdf"
    },
    {
      "idiom" : "universal",
      "scale" : "3x",
      "filename" : "IntroSci@3x.pdf"
    }
  ],
  "info" : {
    "version" : 1,
    "author" : "xcode"
  }
}